<?xml version="1.0" encoding="UTF-8"?>
<kml xmlns="http://www.opengis.net/kml/2.2" xmlns:gx="http://www.google.com/kml/ext/2.2" xmlns:kml="http://www.opengis.net/kml/2.2" xmlns:atom="http://www.w3.org/2005/Atom">
<Document>
	<name>BCCI.kml</name>
    <Style id="bcci">
        <IconStyle>
            <scale>3.5</scale>
            <Icon>
                <href>/map/images/logo/bcci.png</href>
            </Icon>
        </IconStyle>
    </Style>
    <Style id="kdc-tan-tao">
        <BalloonStyle>
            <bgColor>ffffffbb</bgColor> 
        </BalloonStyle>
        <IconStyle>
            <scale>3</scale>
            <Icon>
                <href>/map/images/logo/kdc-tan-tao.png</href>
            </Icon>
        </IconStyle>
    </Style>
    <Style id="bac-luong-beo">
        <BalloonStyle>
            <bgColor>ffffffbb</bgColor> 
        </BalloonStyle>
        <IconStyle>
            <scale>3</scale>
            <Icon>
                <href>/map/images/logo/bac-luong-beo.png</href>
            </Icon>
        </IconStyle>
    </Style>
    <Style id="khu-can-ho-tan-tao-1">
        <BalloonStyle>
            <bgColor>ffffffbb</bgColor> 
        </BalloonStyle>
        <IconStyle>
            <scale>3</scale>
            <Icon>
                <href>/map/images/logo/khu-can-ho-tan-tao-1.png</href>
            </Icon>
        </IconStyle>
    </Style>
    <Style id="nam-hung-vuong-bac-tran-van-kieu">
        <BalloonStyle>
            <bgColor>ffffffbb</bgColor> 
        </BalloonStyle>
        <IconStyle>
            <scale>3</scale>
            <Icon>
                <href>/map/images/logo/nam-hung-vuong-bac-tran-van-kieu.png</href>
            </Icon>
        </IconStyle>
    </Style>
    <Style id="phong-phu-5">
        <BalloonStyle>
            <bgColor>ffffffbb</bgColor> 
        </BalloonStyle>
        <IconStyle>
            <scale>3</scale>
            <Icon>
                <href>/map/images/logo/phong-phu-5.png</href>
            </Icon>
        </IconStyle>
    </Style>
    <Style id="tai-dinh-cu-phong-phu">
        <BalloonStyle>
            <bgColor>ffffffbb</bgColor> 
        </BalloonStyle>
        <IconStyle>
            <scale>3</scale>
            <Icon>
                <href>/map/images/logo/tai-dinh-cu-phong-phu.png</href>
            </Icon>
        </IconStyle>
    </Style>
    <Style id="khu-dan-cu-va-cong-trinh-cong-cong-11a">
        <BalloonStyle>
            <bgColor>ffffffbb</bgColor> 
        </BalloonStyle>
        <IconStyle>
            <scale>3</scale>
            <Icon>
                <href>/map/images/logo/khu-dan-cu-va-cong-trinh-cong-cong-11a.png</href>
            </Icon>
        </IconStyle>
    </Style>
    <Style id="khu-phuc-hop-dam-sen">
        <BalloonStyle>
            <bgColor>ffffffbb</bgColor> 
        </BalloonStyle>
        <IconStyle>
            <scale>3</scale>
            <Icon>
                <href>/map/images/logo/khu-phuc-hop-dam-sen.png</href>
            </Icon>
        </IconStyle>
    </Style>
    <Style id="phong-phu-4">
        <BalloonStyle>
            <bgColor>ffffffbb</bgColor> 
        </BalloonStyle>
        <IconStyle>
            <scale>3</scale>
            <Icon>
                <href>/map/images/logo/phong-phu-4.png</href>
            </Icon>
        </IconStyle>
    </Style>
    <Style id="can-ho-nhat-lan-5-tang">
        <BalloonStyle>
            <bgColor>ffffffbb</bgColor> 
        </BalloonStyle>
        <IconStyle>
            <scale>3</scale>
            <Icon>
                <href>/map/images/logo/can-ho-nhat-lan-5-tang.png</href>
            </Icon>
        </IconStyle>
    </Style>
    <Style id="can-ho-nhat-lan-12-tang">
        <BalloonStyle>
            <bgColor>ffffffbb</bgColor> 
        </BalloonStyle>
        <IconStyle>
            <scale>3</scale>
            <Icon>
                <href>/map/images/logo/can-ho-nhat-lan-12-tang.png</href>
            </Icon>
        </IconStyle>
    </Style>
    <Style id="chung-cu-da-sa">
        <BalloonStyle>
            <bgColor>ffffffbb</bgColor> 
        </BalloonStyle>
        <IconStyle>
            <scale>3</scale>
            <Icon>
                <href>/map/images/logo/chung-cu-da-sa.png</href>
            </Icon>
        </IconStyle>
    </Style>
    <Style id="khu-pho-cho-cay-da-sa">
        <BalloonStyle>
            <bgColor>ffffffbb</bgColor> 
        </BalloonStyle>
        <IconStyle>
            <scale>3</scale>
            <Icon>
                <href>/map/images/logo/khu-pho-cho-cay-da-sa.png</href>
            </Icon>
        </IconStyle>
    </Style>
    <Style id="khu-cong-nghiep-le-minh-xuan">
        <BalloonStyle>
            <bgColor>ffffffbb</bgColor> 
        </BalloonStyle>
        <IconStyle>
            <scale>3</scale>
            <Icon>
                <href>/map/images/logo/khu-cong-nghiep-le-minh-xuan.png</href>
            </Icon>
        </IconStyle>
    </Style>
    <Style id="khu-dan-cu-an-lac-binh-tri-dong">
        <BalloonStyle>
            <bgColor>ffffffbb</bgColor> 
        </BalloonStyle>
        <IconStyle>
            <scale>3</scale>
            <Icon>
                <href>/map/images/logo/kdc-an-lac-binh-tri-dong.png</href>
            </Icon>
        </IconStyle>
    </Style>
    <Style id="khu-dan-cu-binh-hung">
        <BalloonStyle>
            <bgColor>ffffffbb</bgColor> 
        </BalloonStyle>
        <IconStyle>
            <scale>3</scale>
            <Icon>
                <href>/map/images/logo/kdc-binh-hung.png</href>
            </Icon>
        </IconStyle>
    </Style>
    <Style id="phong-phu-2">
        <BalloonStyle>
            <bgColor>ffffffbb</bgColor> 
        </BalloonStyle>
        <IconStyle>
            <scale>3</scale>
            <Icon>
                <href>/map/images/logo/phong-phu-2.png</href>
            </Icon>
        </IconStyle>
    </Style>
    <Style id="cao-oc-an-lac-plaza-kdc-an-lac">
        <BalloonStyle>
            <bgColor>ffffffbb</bgColor> 
        </BalloonStyle>
        <IconStyle>
            <scale>3</scale>
            <Icon>
                <href>/map/images/logo/cao-oc-an-lac-plaza.png</href>
            </Icon>
        </IconStyle>
    </Style>
    <Style id="khu-cong-nghiep-le-minh-xuan-mo-rong">
        <BalloonStyle>
            <bgColor>ffffffbb</bgColor> 
        </BalloonStyle>
        <IconStyle>
            <scale>3</scale>
            <Icon>
                <href>/map/images/logo/khu-cong-nghiep-le-minh-xuan-mo-rong.png</href>
            </Icon>
        </IconStyle>
    </Style>
    <Style id="khu-do-thi-tan-tao">
        <BalloonStyle>
            <bgColor>ffffffbb</bgColor> 
        </BalloonStyle>
        <IconStyle>
            <scale>3</scale>
            <Icon>
                <href>/map/images/logo/khu-do-thi-tan-tao.png</href>
            </Icon>
        </IconStyle>
    </Style>
	<Style id="cao-oc-van-phong-bcci">
        <BalloonStyle>
            <bgColor>ffffffbb</bgColor> 
        </BalloonStyle>
        <IconStyle>
            <scale>3</scale>
            <Icon>
                <href>/map/images/logo/cao-oc-van-phong-bcci.png</href>
            </Icon>
        </IconStyle>
    </Style>
	<Style id="chung-cu-bcci">
        <BalloonStyle>
            <bgColor>ffffffbb</bgColor> 
        </BalloonStyle>
        <IconStyle>
            <scale>3</scale>
            <Icon>
                <href>/map/images/logo/chung-cu-bcci.png</href>
            </Icon>
        </IconStyle>
    </Style>
	<Style id="huong-lo-5">
        <BalloonStyle>
            <bgColor>ffffffbb</bgColor> 
        </BalloonStyle>
        <IconStyle>
            <scale>3</scale>
            <Icon>
                <href>/map/images/logo/huong-lo-5.png</href>
            </Icon>
        </IconStyle>
    </Style>
	<Style id="khu-cong-nghiep-phong-phu">
        <BalloonStyle>
            <bgColor>ffffffbb</bgColor> 
        </BalloonStyle>
        <IconStyle>
            <scale>3</scale>
            <Icon>
                <href>/map/images/logo/khu-cong-nghiep-phong-phu.png</href>
            </Icon>
        </IconStyle>
    </Style>
	<Style id="ly-chieu-hoang">
        <BalloonStyle>
            <bgColor>ffffffbb</bgColor> 
        </BalloonStyle>
        <IconStyle>
            <scale>3</scale>
            <Icon>
                <href>/map/images/logo/ly-chieu-hoang.png</href>
            </Icon>
        </IconStyle>
    </Style>
	<Style id="cau-xang">
        <BalloonStyle>
            <bgColor>ffffffbb</bgColor> 
        </BalloonStyle>
        <IconStyle>
            <scale>3</scale>
            <Icon>
                <href>/map/images/logo/cau-xang.png</href>
            </Icon>
        </IconStyle>
    </Style>
    <Folder>
        <name>BCCI.kml</name>
        <open>1</open>
        <Placemark>
            <name>Trung tâm đô thị Tân Tạo</name>
            <description><![CDATA[<img alt="Trung tâm đô thị Tân Tạo" height="200" src="/map/images/overview/img-kdc-tan-tao.jpg" width="200" style="border-width: 0;"/>]]></description>
            <LookAt>
                <longitude>106.56957</longitude>
                <latitude>10.74334</latitude>
                <altitude>0</altitude>
                <range>478.4868096622411</range>
                <tilt>0</tilt>
                <heading>-4.802884061997724e-010</heading>
                <altitudeMode>relativeToGround</altitudeMode>
                <gx:altitudeMode>relativeToSeaFloor</gx:altitudeMode>
            </LookAt>
            <styleUrl>#kdc-tan-tao</styleUrl>
			<Point>
				<coordinates>106.56957, 10.74334,0</coordinates>
			</Point>
			<type>kdc</type>
        </Placemark>
        <Placemark>
            <name>Khu dân cư Bắc Lương Bèo</name>
            <description><![CDATA[<img alt="Khu dân cư Bắc Lương Bèo" height="200" src="/map/images/overview/img-bac-luong-beo.jpg" width="200" style="border-width: 0;"/>]]></description>
            <LookAt>
                <longitude>106.59084</longitude>
                <latitude>10.75091</latitude>
                <altitude>0</altitude>
                <range>478.4868096622411</range>
                <tilt>0</tilt>
                <heading>-4.802884061997724e-010</heading>
                <altitudeMode>relativeToGround</altitudeMode>
                <gx:altitudeMode>relativeToSeaFloor</gx:altitudeMode>
            </LookAt>
            <styleUrl>#bac-luong-beo</styleUrl>
			<Point>
				<coordinates>106.59084, 10.75091,0</coordinates>
			</Point>
			<type>kdc</type>
        </Placemark>
        <Placemark>
            <name>Căn hộ Tân Tạo 1</name>
            <description><![CDATA[<img alt="Căn hộ Tân Tạo 1" height="200" src="/map/images/overview/img-can-ho-tan-tao-1.jpg" width="200" style="border-width: 0;"/>]]></description>
            <LookAt>
                <longitude>106.59180</longitude>
                <latitude>10.75286</latitude>
                <altitude>0</altitude>
                <range>478.4868096622411</range>
                <tilt>0</tilt>
                <heading>-4.802884061997724e-010</heading>
                <altitudeMode>relativeToGround</altitudeMode>
                <gx:altitudeMode>relativeToSeaFloor</gx:altitudeMode>
            </LookAt>
            <styleUrl>#khu-can-ho-tan-tao-1</styleUrl>
			<Point>
				<coordinates>106.59180, 10.75286,0</coordinates>
			</Point>
			<type>kcc</type>
        </Placemark>
        <Placemark>
            <name>Nam Hùng Vương - Bắc Trần Văn Kiểu</name>
            <description><![CDATA[<img alt="Nam Hùng Vương - Bắc Trần Văn Kiểu" height="200" src="/map/images/overview/img-nam-hung-vuong-bac-tran-van-kieu.jpg" width="200" style="border-width: 0;"/>]]></description>
            <LookAt>
                <longitude>106.61528</longitude>
                <latitude>10.72639</latitude>
                <altitude>0</altitude>
                <range>478.4868096622411</range>
                <tilt>0</tilt>
                <heading>-4.802884061997724e-010</heading>
                <altitudeMode>relativeToGround</altitudeMode>
                <gx:altitudeMode>relativeToSeaFloor</gx:altitudeMode>
            </LookAt>
            <styleUrl>#nam-hung-vuong-bac-tran-van-kieu</styleUrl>
			<Point>
				<coordinates>106.61528,10.72639,0</coordinates>
			</Point>
			<type>kdc</type>
        </Placemark>
        <Placemark>
            <name>Khu dân cư Phong Phú 5</name>
            <description><![CDATA[<img alt="Khu dân cư Phong Phú 5" height="200" src="/map/images/overview/img-phong-phu-5.jpg" width="200" style="border-width: 0;"/>]]></description>
            <LookAt>
                <longitude>106.64648</longitude>
                <latitude>10.72566</latitude>
                <altitude>0</altitude>
                <range>478.4868096622411</range>
                <tilt>0</tilt>
                <heading>-4.802884061997724e-010</heading>
                <altitudeMode>relativeToGround</altitudeMode>
                <gx:altitudeMode>relativeToSeaFloor</gx:altitudeMode>
            </LookAt>
            <styleUrl>#phong-phu-5</styleUrl>
			<Point>
				<coordinates>106.64648,10.72566,0</coordinates>
			</Point>
			<type>kdc</type>
        </Placemark>
        <Placemark>
            <name>Khu Dân cư và Công trình công cộng 11A</name>
            <description><![CDATA[<img alt="Khu Dân cư và Công trình công cộng 11A" height="200" src="/map/images/overview/img-dan-cu-va-cong-trinh-cong-cong-11a.jpg" width="200" style="border-width: 0;"/>]]></description>
            <LookAt>
                <longitude>106.65187</longitude>
                <latitude>10.72169</latitude>
                <altitude>0</altitude>
                <range>478.4868096622411</range>
                <tilt>0</tilt>
                <heading>-4.802884061997724e-010</heading>
                <altitudeMode>relativeToGround</altitudeMode>
                <gx:altitudeMode>relativeToSeaFloor</gx:altitudeMode>
            </LookAt>
            <styleUrl>#khu-dan-cu-va-cong-trinh-cong-cong-11a</styleUrl>
			<Point>
				<coordinates>106.65187,10.72169,0</coordinates>
			</Point>
			<type>kdc</type>
        </Placemark>
        <Placemark>
            <name>Khu phức hợp Đầm Sen</name>
            <description><![CDATA[<img alt="Khu Phức Hợp Đầm Sen" height="200" src="/map/images/overview/img-phuc-hop-dam-sen.jpg" width="200" style="border-width: 0;"/>]]></description>
            <LookAt>
                <longitude>106.63665</longitude>
                <latitude>10.76388</latitude>
                <altitude>0</altitude>
                <range>478.4868096622411</range>
                <tilt>0</tilt>
                <heading>-4.802884061997724e-010</heading>
                <altitudeMode>relativeToGround</altitudeMode>
                <gx:altitudeMode>relativeToSeaFloor</gx:altitudeMode>
            </LookAt>
            <styleUrl>#khu-phuc-hop-dam-sen</styleUrl>
			<Point>
				<coordinates>106.63665,10.76388,0</coordinates>
			</Point>
			<type>kdc</type>
        </Placemark>
        <Placemark>
            <name>Khu dân cư Phong Phú 4</name>
            <description><![CDATA[<img alt="Khu Dân cư Phong Phú 4" height="200" src="/map/images/overview/img-phong-phu-4.jpg" width="200" style="border-width: 0;"/>]]></description>
            <LookAt>
                <longitude>106.64487</longitude>
                <latitude>10.69123</latitude>
                <altitude>0</altitude>
                <range>478.4868096622411</range>
                <tilt>0</tilt>
                <heading>-4.802884061997724e-010</heading>
                <altitudeMode>relativeToGround</altitudeMode>
                <gx:altitudeMode>relativeToSeaFloor</gx:altitudeMode>
            </LookAt>
            <styleUrl>#phong-phu-4</styleUrl>
			<Point>
				<coordinates>106.64487,10.69123,0</coordinates>
			</Point>
			<type>kdc</type>
        </Placemark>
        <Placemark>
            <name>Căn hộ Nhất Lan (5 tầng) </name>
            <description><![CDATA[<img alt="Căn hộ Nhất Lan (5 tầng)" height="200" src="/map/images/overview/img-can-ho-nhat-lan.jpg" width="200" style="border-width: 0;"/>]]></description>
            <LookAt>
                <longitude>106.59359</longitude>
                <latitude>10.75424</latitude>
                <altitude>0</altitude>
                <range>478.4868096622411</range>
                <tilt>0</tilt>
                <heading>-4.802884061997724e-010</heading>
                <altitudeMode>relativeToGround</altitudeMode>
                <gx:altitudeMode>relativeToSeaFloor</gx:altitudeMode>
            </LookAt>
            <styleUrl>#can-ho-nhat-lan-5-tang</styleUrl>
			<Point>
				<coordinates>106.59359,10.75424,0</coordinates>
			</Point>
			<type>kcc</type>
        </Placemark>
        <Placemark>
            <name>Căn hộ Nhất Lan (12 tầng) </name>
            <description><![CDATA[<img alt="Căn hộ Nhất Lan (12 tầng)" height="200" src="/map/images/overview/img-can-ho-nhat-lan.jpg" width="200" style="border-width: 0;"/>]]></description>
            <LookAt>
                <longitude>106.59346</longitude>
                <latitude>10.75497</latitude>
                <altitude>0</altitude>
                <range>478.4868096622411</range>
                <tilt>0</tilt>
                <heading>-4.802884061997724e-010</heading>
                <altitudeMode>relativeToGround</altitudeMode>
                <gx:altitudeMode>relativeToSeaFloor</gx:altitudeMode>
            </LookAt>
            <styleUrl>#can-ho-nhat-lan-12-tang</styleUrl>
			<Point>
				<coordinates>106.59346,10.75497,0</coordinates>
			</Point>
			<type>kcc</type>
        </Placemark>
        <Placemark>
            <name>Chung cư Da Sà </name>
            <description><![CDATA[<img alt="Chung cư Da Sà" height="200" src="/map/images/overview/img-da-sa.jpg" width="200" style="border-width: 0;"/>]]></description>
            <LookAt>
                <longitude>106.61886</longitude>
                <latitude>10.75572</latitude>
                <altitude>0</altitude>
                <range>478.4868096622411</range>
                <tilt>0</tilt>
                <heading>-4.802884061997724e-010</heading>
                <altitudeMode>relativeToGround</altitudeMode>
                <gx:altitudeMode>relativeToSeaFloor</gx:altitudeMode>
            </LookAt>
            <styleUrl>#chung-cu-da-sa</styleUrl>
			<Point>
				<coordinates>106.61886,10.75572,0</coordinates>
			</Point>
			<type>kcc</type>
        </Placemark>
        <Placemark>
            <name>Phố chợ cây Da Sà </name>
            <description><![CDATA[<img alt="Phố Chợ cây Da Sà" height="200" src="/map/images/overview/img-da-sa.jpg" width="200" style="border-width: 0;"/>]]></description>
            <LookAt>
                <longitude>106.61887</longitude>
                <latitude>10.75628</latitude>
                <altitude>0</altitude>
                <range>478.4868096622411</range>
                <tilt>0</tilt>
                <heading>-4.802884061997724e-010</heading>
                <altitudeMode>relativeToGround</altitudeMode>
                <gx:altitudeMode>relativeToSeaFloor</gx:altitudeMode>
            </LookAt>
            <styleUrl>#khu-pho-cho-cay-da-sa</styleUrl>
			<Point>
				<coordinates>106.61887,10.75628,0</coordinates>
			</Point>
			<type>kdc</type>
        </Placemark>
        <Placemark>
            <name>Khu công nghiệp Lê Minh Xuân </name>
            <description><![CDATA[<img alt="Khu Công nghiệp Lê Minh Xuân" height="200" src="/map/images/overview/img-khu-cong-nghiep-le-minh-xuan.jpg" width="200" style="border-width: 0;"/>]]></description>
            <LookAt>
                <longitude>106.54350</longitude>
                <latitude>10.74275</latitude>
                <altitude>0</altitude>
                <range>478.4868096622411</range>
                <tilt>0</tilt>
                <heading>-4.802884061997724e-010</heading>
                <altitudeMode>relativeToGround</altitudeMode>
                <gx:altitudeMode>relativeToSeaFloor</gx:altitudeMode>
            </LookAt>
            <styleUrl>#khu-cong-nghiep-le-minh-xuan</styleUrl>
			<Point>
				<coordinates>106.54350,10.74275,0</coordinates>
			</Point>
			<type>kcn</type>
        </Placemark>
        <Placemark>
            <name>Khu dân cư An Lạc - Bình Trị Đông </name>
            <description><![CDATA[<img alt="Khu Dân cư An Lạc - Bình Trị Đông" height="200" src="/map/images/overview/img-kdc-an-lac-binh-tri-dong.jpg" width="200" style="border-width: 0;"/>]]></description>
            <LookAt>
                <longitude>106.61247</longitude>
                <latitude>10.74973</latitude>
                <altitude>0</altitude>
                <range>478.4868096622411</range>
                <tilt>0</tilt>
                <heading>-4.802884061997724e-010</heading>
                <altitudeMode>relativeToGround</altitudeMode>
                <gx:altitudeMode>relativeToSeaFloor</gx:altitudeMode>
            </LookAt>
            <styleUrl>#khu-dan-cu-an-lac-binh-tri-dong</styleUrl>
			<Point>
				<coordinates>106.61247,10.74973,0</coordinates>
			</Point>
			<type>kdc</type>
        </Placemark>
        <Placemark>
            <name>Cao ốc An Lạc Plaza</name>
            <description><![CDATA[<img alt="Cao Ốc An Lạc Plaza" height="200" src="/map/images/overview/img-cao-oc-an-lac-plaza-kdc-an-lac.jpg" width="200" style="border-width: 0;"/>]]></description>
            <LookAt>
                <longitude>106.62013</longitude>
                <latitude>10.75196</latitude>
                <altitude>0</altitude>
                <range>478.4868096622411</range>
                <tilt>0</tilt>
                <heading>-4.802884061997724e-010</heading>
                <altitudeMode>relativeToGround</altitudeMode>
                <gx:altitudeMode>relativeToSeaFloor</gx:altitudeMode>
            </LookAt>
            <styleUrl>#cao-oc-an-lac-plaza-kdc-an-lac</styleUrl>
			<Point>
				<coordinates>106.62013,10.75196,0</coordinates>
			</Point>
			<type>kcc</type>
        </Placemark>
        <Placemark>
            <name>Khu dân cư Bình Hưng </name>
            <description><![CDATA[<img alt="Khu Dân cư Bình Hưng" height="200" src="/map/images/overview/img-kdc-binh-hung.jpg" width="200" style="border-width: 0;"/>]]></description>
            <LookAt>
                <longitude>106.65252</longitude>
                <latitude>10.72757</latitude>
                <altitude>0</altitude>
                <range>478.4868096622411</range>
                <tilt>0</tilt>
                <heading>-4.802884061997724e-010</heading>
                <altitudeMode>relativeToGround</altitudeMode>
                <gx:altitudeMode>relativeToSeaFloor</gx:altitudeMode>
            </LookAt>
            <styleUrl>#khu-dan-cu-binh-hung</styleUrl>
			<Point>
				<coordinates>106.65252,10.72757,0</coordinates>
			</Point>
			<type>kdc</type>
        </Placemark>
        <Placemark>
            <name>Khu dân cư Phong Phú 2 </name>
            <description><![CDATA[<img alt="Khu Dân cư Phong Phú 2" height="200" src="/map/images/overview/img-phong-phu-2.jpg" width="200" style="border-width: 0;"/>]]></description>
            <LookAt>
                <longitude>106.63487</longitude>
                <latitude>10.68650</latitude>
                <altitude>0</altitude>
                <range>478.4868096622411</range>
                <tilt>0</tilt>
                <heading>-4.802884061997724e-010</heading>
                <altitudeMode>relativeToGround</altitudeMode>
                <gx:altitudeMode>relativeToSeaFloor</gx:altitudeMode>
            </LookAt>
            <styleUrl>#phong-phu-2</styleUrl>
			<Point>
				<coordinates>106.63487,10.68650,0</coordinates>
			</Point>
			<type>kdc</type>
        </Placemark>
        <Placemark>
            <name>Khu công nghiệp Lê Minh Xuân mở rộng </name>
            <description><![CDATA[<img alt="Khu Công nghiệp Lê Minh Xuân Mở Rộng" height="200" src="/map/images/overview/img-khu-cong-nghiep-le-minh-xuan-mo-rong.jpg" width="200" style="border-width: 0;"/>]]></description>
            <LookAt>
                <longitude>106.55397</longitude>
                <latitude>10.74726</latitude>
                <altitude>0</altitude>
                <range>478.4868096622411</range>
                <tilt>0</tilt>
                <heading>-4.802884061997724e-010</heading>
                <altitudeMode>relativeToGround</altitudeMode>
                <gx:altitudeMode>relativeToSeaFloor</gx:altitudeMode>
            </LookAt>
            <styleUrl>#khu-cong-nghiep-le-minh-xuan-mo-rong</styleUrl>
			<Point>
				<coordinates>106.55397,10.74726,0</coordinates>
			</Point>
			<type>kcn</type>
        </Placemark>
        <Placemark>
            <name>Khu dân cư Tân Tạo </name>
            <description><![CDATA[<img alt="Khu dân cư Tân Tạo" height="200" src="/map/images/overview/img-khu-do-thi-tan-tao.jpg" width="200" style="border-width: 0;"/>]]></description>
            <LookAt>
                <longitude>106.59811</longitude>
                <latitude>10.75260</latitude>
                <altitude>0</altitude>
                <range>478.4868096622411</range>
                <tilt>0</tilt>
                <heading>-4.802884061997724e-010</heading>
                <altitudeMode>relativeToGround</altitudeMode>
                <gx:altitudeMode>relativeToSeaFloor</gx:altitudeMode>
            </LookAt>
            <styleUrl>#khu-do-thi-tan-tao</styleUrl>
			<Point>
				<coordinates>106.59811,10.75260,0</coordinates>
			</Point>
			<type>kdc</type>
        </Placemark>
		<Placemark>
            <name>Cao ốc văn phòng BCCI</name>
            <description><![CDATA[<img alt="Cao Ốc Văn phong BCCI" height="200" src="/map/images/overview/img-cao-oc-van-phong-bcci.jpg" width="200" style="border-width: 0;"/>]]></description>
            <LookAt>
                <longitude>106.61236</longitude>
                <latitude>10.73424</latitude>
                <altitude>0</altitude>
                <range>478.4868096622411</range>
                <tilt>0</tilt>
                <heading>-4.802884061997724e-010</heading>
                <altitudeMode>relativeToGround</altitudeMode>
                <gx:altitudeMode>relativeToSeaFloor</gx:altitudeMode>
            </LookAt>
            <styleUrl>#cao-oc-van-phong-bcci</styleUrl>
			<Point>
				<coordinates>106.61236,10.73424,0</coordinates>
			</Point>
			<type>kcc</type>
        </Placemark>
		<Placemark>
            <name>Chung cư BCCI</name>
            <description><![CDATA[<img alt="Chung cư BCCI" height="200" src="/map/images/overview/img-chung-cu-bcci.jpg" width="200" style="border-width: 0;"/>]]></description>
            <LookAt>
                <longitude>106.61821</longitude>
                <latitude>10.73780</latitude>
                <altitude>0</altitude>
                <range>478.4868096622411</range>
                <tilt>0</tilt>
                <heading>-4.802884061997724e-010</heading>
                <altitudeMode>relativeToGround</altitudeMode>
                <gx:altitudeMode>relativeToSeaFloor</gx:altitudeMode>
            </LookAt>
            <styleUrl>#chung-cu-bcci</styleUrl>
			<Point>
				<coordinates>106.61821,10.73780,0</coordinates>
			</Point>
			<type>kcc</type>
        </Placemark>
		<Placemark>
            <name>Khu dân cư Hương Lộ 5</name>
            <description><![CDATA[<img alt="Hương lộ 5" height="200" src="/map/images/overview/img-huong-lo-5.jpg" width="200" style="border-width: 0;"/>]]></description>
            <LookAt>
                <longitude>106.61168</longitude>
                <latitude>10.72537</latitude>
                <altitude>0</altitude>
                <range>478.4868096622411</range>
                <tilt>0</tilt>
                <heading>-4.802884061997724e-010</heading>
                <altitudeMode>relativeToGround</altitudeMode>
                <gx:altitudeMode>relativeToSeaFloor</gx:altitudeMode>
            </LookAt>
            <styleUrl>#huong-lo-5</styleUrl>
			<Point>
				<coordinates>106.61168,10.72537,0</coordinates>
			</Point>
			<type>kdc</type>
        </Placemark>
		<Placemark>
            <name>Khu công nghiệp Phong Phú</name>
            <description><![CDATA[<img alt="Khu công nghiệp Phong Phú" height="200" src="/map/images/overview/img-khu-cong-nghiep-phong-phu.jpg" width="200" style="border-width: 0;"/>]]></description>
            <LookAt>
                <longitude>106.63188</longitude>
                <latitude>10.69633</latitude>
                <altitude>0</altitude>
                <range>478.4868096622411</range>
                <tilt>0</tilt>
                <heading>-4.802884061997724e-010</heading>
                <altitudeMode>relativeToGround</altitudeMode>
                <gx:altitudeMode>relativeToSeaFloor</gx:altitudeMode>
            </LookAt>
            <styleUrl>#khu-cong-nghiep-phong-phu</styleUrl>
			<Point>
				<coordinates>106.63188,10.69633,0</coordinates>
			</Point>
			<type>kcn</type>
        </Placemark>
		<Placemark>
            <name>Khu dân cư Lý Chiêu Hoàng</name>
            <description><![CDATA[<img alt="Khu dân cư Lý Chiêu Hoàng" height="200" src="/map/images/overview/img-kdc-ly-chieu-hoang.jpg" width="200" style="border-width: 0;"/>]]></description>
            <LookAt>
                <longitude>106.62119656</longitude>
                <latitude>10.73914755</latitude>
                <altitude>0</altitude>
                <range>478.4868096622411</range>
                <tilt>0</tilt>
                <heading>-4.802884061997724e-010</heading>
                <altitudeMode>relativeToGround</altitudeMode>
                <gx:altitudeMode>relativeToSeaFloor</gx:altitudeMode>
            </LookAt>
            <styleUrl>#ly-chieu-hoang</styleUrl>
			<Point>
				<coordinates>106.62119656,10.73914755,0</coordinates>
			</Point>
			<type>kdc</type>
        </Placemark>
		<Placemark>
            <name>Khu dân cư Cầu Xáng</name>
            <description><![CDATA[<img alt="Khu dân cư Cầu Xáng" height="200" src="/map/images/overview/img-kdc-cau-xang.jpg" width="200" style="border-width: 0;"/>]]></description>
            <LookAt>
                <longitude>106.51584941</longitude>
                <latitude>10.79058926</latitude>
                <altitude>0</altitude>
                <range>478.4868096622411</range>
                <tilt>0</tilt>
                <heading>-4.802884061997724e-010</heading>
                <altitudeMode>relativeToGround</altitudeMode>
                <gx:altitudeMode>relativeToSeaFloor</gx:altitudeMode>
            </LookAt>
            <styleUrl>#cau-xang</styleUrl>
			<Point>
				<coordinates>106.51584941,10.79058926,0</coordinates>
			</Point>
			<type>kdc</type>
        </Placemark>
    </Folder>
</Document>
</kml>
