<?xml version="1.0" encoding="UTF-8"?>
<kml xmlns="http://www.opengis.net/kml/2.2" xmlns:gx="http://www.google.com/kml/ext/2.2" xmlns:kml="http://www.opengis.net/kml/2.2" xmlns:atom="http://www.w3.org/2005/Atom">
<Document>
	<name>housevn.kml</name>
    <Style id="nha-viet-nam">
        <BalloonStyle>
            <bgColor>ffffffbb</bgColor> 
        </BalloonStyle>
        <IconStyle>
            <scale>3</scale>
            <Icon>
                <href>housevn.png</href>
            </Icon>
        </IconStyle>
    </Style>
    <Folder>
        <name>housevn.kml</name>
        <open>1</open>
        <Placemark>
            <name>The Boat Club Residence </name>
            <description><![CDATA[<img alt="The Boat Club Residence" height="200" src="img-khu-do-thi-tan-tao.jpg" width="200" style="border-width: 0;"/>]]></description>
            <LookAt>
                <longitude>106.84243</longitude>
                <latitude>10.80595</latitude>
                <altitude>0</altitude>
                <range>478.4868096622411</range>
                <tilt>0</tilt>
                <heading>-4.802884061997724e-010</heading>
                <altitudeMode>relativeToGround</altitudeMode>
                <gx:altitudeMode>relativeToSeaFloor</gx:altitudeMode>
            </LookAt>
            <styleUrl>#nha-viet-nam</styleUrl>
			<Point>
				<coordinates>106.84243,10.80595,0</coordinates>
			</Point>
        </Placemark>
        <Placemark>
            <name>Trường Thạnh A </name>
            <description><![CDATA[<img alt="Trường Thạnh A" height="200" src="img-khu-do-thi-tan-tao.jpg" width="200" style="border-width: 0;"/>]]></description>
            <LookAt>
                <longitude>106.83981</longitude>
                <latitude>10.80414</latitude>
                <altitude>0</altitude>
                <range>478.4868096622411</range>
                <tilt>0</tilt>
                <heading>-4.802884061997724e-010</heading>
                <altitudeMode>relativeToGround</altitudeMode>
                <gx:altitudeMode>relativeToSeaFloor</gx:altitudeMode>
            </LookAt>
            <styleUrl>#nha-viet-nam</styleUrl>
			<Point>
				<coordinates>106.83981,10.80414,0</coordinates>
			</Point>
        </Placemark>
    </Folder>
</Document>
</kml>
